simulation/qsim/alu.msim.vcd
$comment
	File created using the following command:
		vcd file alu.msim.vcd -direction
$end
$date
	Tue Dec 03 07:54:37 2024
$end
$version
	ModelSim Version 10.1d
$end
$timescale
	1ps
$end
$scope module problem3_vlg_vec_tst $end
$var reg 8 ! A [7:0] $end
$var reg 8 " B [7:0] $end
$var reg 1 # Clock $end
$var reg 1 $ FSM_reset $end
$var reg 1 % latchReset $end
$var wire 1 & student_ID [0] $end
$var wire 1 ' student_ID [1] $end
$var wire 1 ( student_ID [2] $end
$var wire 1 ) student_ID [3] $end
$var wire 1 * student_ID [4] $end
$var wire 1 + student_ID [5] $end
$var wire 1 , student_ID [6] $end
$var wire 1 - yesno [0] $end
$var wire 1 . yesno [1] $end
$var wire 1 / yesno [2] $end
$var wire 1 0 yesno [3] $end
$var wire 1 1 yesno [4] $end
$var wire 1 2 yesno [5] $end
$var wire 1 3 yesno [6] $end
$var wire 1 4 sampler $end
$scope module i1 $end
$var wire 1 5 gnd $end
$var wire 1 6 vcc $end
$var wire 1 7 unknown $end
$var tri1 1 8 devclrn $end
$var tri1 1 9 devpor $end
$var tri1 1 : devoe $end
$var wire 1 ; inst|Equal0~1_combout $end
$var wire 1 < inst|Equal1~0_combout $end
$var wire 1 = Clock~combout $end
$var wire 1 > Clock~clk_delay_ctrl_clkout $end
$var wire 1 ? Clock~clkctrl_outclk $end
$var wire 1 @ inst8|Q[3]~feeder_combout $end
$var wire 1 A FSM_reset~combout $end
$var wire 1 B inst13|yfsm.s5~regout $end
$var wire 1 C inst13|yfsm.s6~regout $end
$var wire 1 D inst13|yfsm.s7~feeder_combout $end
$var wire 1 E inst13|yfsm.s7~regout $end
$var wire 1 F inst13|yfsm.s0~0_combout $end
$var wire 1 G inst13|yfsm.s0~regout $end
$var wire 1 H inst13|yfsm.s1~0_combout $end
$var wire 1 I inst13|yfsm.s1~regout $end
$var wire 1 J inst13|yfsm.s2~regout $end
$var wire 1 K inst13|yfsm.s3~regout $end
$var wire 1 L inst13|yfsm.s4~regout $end
$var wire 1 M inst13|WideOr4~0_combout $end
$var wire 1 N inst13|WideOr3~0_combout $end
$var wire 1 O inst4|Mux0~0_combout $end
$var wire 1 P inst4|Mux1~0_combout $end
$var wire 1 Q inst4|Mux2~0_combout $end
$var wire 1 R inst4|Mux3~0_combout $end
$var wire 1 S inst4|Mux4~0_combout $end
$var wire 1 T inst4|Mux5~0_combout $end
$var wire 1 U inst4|Mux6~0_combout $end
$var wire 1 V inst8|Q[7]~feeder_combout $end
$var wire 1 W latchReset~combout $end
$var wire 1 X inst|Equal0~0_combout $end
$var wire 1 Y inst|Equal0~2_combout $end
$var wire 1 Z inst|Equal1~1_combout $end
$var wire 1 [ inst|Result[3]~0_combout $end
$var wire 1 \ inst8|Q [7] $end
$var wire 1 ] inst8|Q [6] $end
$var wire 1 ^ inst8|Q [5] $end
$var wire 1 _ inst8|Q [4] $end
$var wire 1 ` inst8|Q [3] $end
$var wire 1 a inst8|Q [2] $end
$var wire 1 b inst8|Q [1] $end
$var wire 1 c inst8|Q [0] $end
$var wire 1 d A~combout [7] $end
$var wire 1 e A~combout [6] $end
$var wire 1 f A~combout [5] $end
$var wire 1 g A~combout [4] $end
$var wire 1 h A~combout [3] $end
$var wire 1 i A~combout [2] $end
$var wire 1 j A~combout [1] $end
$var wire 1 k A~combout [0] $end
$upscope $end
$upscope $end
$enddefinitions $end
#0
$dumpvars
b110 !
b1100110 "
0#
0$
0%
1,
0+
0*
0)
0(
0'
0&
03
02
11
00
0/
0.
1-
x4
05
16
x7
18
19
1:
0;
1<
0=
0>
0?
0@
0A
0B
0C
0D
0E
1F
0G
1H
0I
0J
0K
0L
0M
0N
0O
0P
0Q
0R
0S
0T
1U
0V
0W
1X
1Y
1Z
1[
0c
0b
0a
0`
0_
0^
0]
0\
0k
1j
1i
0h
0g
0f
0e
0d
$end
#40000
1#
1=
04
1>
1?
1a
1I
1G
1b
0Z
1M
1;
0H
0<
1T
1S
1R
1O
0Y
0[
1+
1*
1)
1&
01
0-
10
13
#80000
0#
0=
14
0>
0?
#120000
1#
1=
04
1>
1?
1J
0I
0X
0U
0T
0R
1Q
0O
1<
0M
0;
1T
0S
0,
0+
0)
1(
0&
1+
0*
#160000
0#
0=
14
0>
0?
#200000
1#
1=
04
1>
1?
1K
0J
0Q
1N
1X
1U
0T
0<
0U
1S
1R
1O
0(
1,
0+
0,
1*
1)
1&
#240000
0#
0=
14
0>
0?
#280000
1#
1=
04
1>
1?
1L
0K
1M
1;
0R
1P
0O
0)
1'
0&
#320000
0#
0=
14
0>
0?
#360000
1#
1=
04
1>
1?
0L
1B
0N
1U
1T
1R
0P
1O
1,
1+
1)
0'
1&
#400000
0#
0=
14
0>
0?
#440000
1#
1=
04
1>
1?
1C
0B
0X
0U
0T
0R
0O
1N
1D
1<
0M
0;
1Z
0S
1P
0,
0+
0)
0&
1[
0*
1'
11
1-
00
03
#480000
0#
0=
14
0>
0?
#520000
1#
1=
04
1>
1?
1E
0C
0F
1X
1S
1R
0P
1O
0N
0D
0<
1Y
0Z
1U
0S
0R
0O
1*
1)
0'
1&
1,
0*
0)
0&
#560000
0#
0=
14
0>
0?
#600000
1#
1=
04
1>
1?
0G
0E
1H
1F
#640000
0#
0=
14
0>
0?
#680000
1#
1=
04
1>
1?
1I
1G
1M
1;
0H
1T
1S
1R
1O
0Y
0[
1+
1*
1)
1&
01
0-
10
13
#720000
0#
0=
14
0>
0?
#760000
1#
1=
04
1>
1?
1J
0I
0X
0U
0T
0R
1Q
0O
1<
0M
0;
1T
0S
0,
0+
0)
1(
0&
1+
0*
#800000
0#
0=
14
0>
0?
